simulation/qsim/Lab2.msim.vcd
$comment
	File created using the following command:
		vcd file Lab2.msim.vcd -direction
$end
$date
	Fri Oct 28 07:39:14 2022
$end
$version
	ModelSim Version 10.1d
$end
$timescale
	1ps
$end
$scope module datapath_vlg_vec_tst $end
$var reg 1 ! g_clk $end
$var reg 1 " globalRes $end
$var reg 4 # num0 [3:0] $end
$var reg 4 $ num1 [3:0] $end
$var reg 1 % sel0 $end
$var reg 1 & sel1 $end
$var wire 1 ' result [7] $end
$var wire 1 ( result [6] $end
$var wire 1 ) result [5] $end
$var wire 1 * result [4] $end
$var wire 1 + result [3] $end
$var wire 1 , result [2] $end
$var wire 1 - result [1] $end
$var wire 1 . result [0] $end
$var wire 1 / sampler $end
$scope module i1 $end
$var wire 1 0 gnd $end
$var wire 1 1 vcc $end
$var wire 1 2 unknown $end
$var tri1 1 3 devclrn $end
$var tri1 1 4 devpor $end
$var tri1 1 5 devoe $end
$var wire 1 6 ~QUARTUS_CREATED_GND~I_combout $end
$var wire 1 7 g_clk~input_o $end
$var wire 1 8 g_clk~inputCLKENA0_outclk $end
$var wire 1 9 sel1~input_o $end
$var wire 1 : sel0~input_o $end
$var wire 1 ; num0[3]~input_o $end
$var wire 1 < num0[1]~input_o $end
$var wire 1 = num0[0]~input_o $end
$var wire 1 > num0[2]~input_o $end
$var wire 1 ? myDiv|input1|mux|y[2]~0_combout $end
$var wire 1 @ myDiv|FS1|Bout~0_combout $end
$var wire 1 A num1[2]~input_o $end
$var wire 1 B num1[0]~input_o $end
$var wire 1 C num1[3]~input_o $end
$var wire 1 D num1[1]~input_o $end
$var wire 1 E myDiv|ORout[0]~0_combout $end
$var wire 1 F myDiv|input2|mux|y[1]~1_combout $end
$var wire 1 G myDiv|FS0|D~0_combout $end
$var wire 1 H myDiv|input2|mux|y[2]~2_combout $end
$var wire 1 I myDiv|input1|mux|y[1]~1_combout $end
$var wire 1 J myDiv|FS7|Bout~6_combout $end
$var wire 1 K myDiv|FS2|Bout~0_combout $end
$var wire 1 L myDiv|FS3|Bout~0_combout $end
$var wire 1 M myDiv|FS1|D~0_combout $end
$var wire 1 N myDiv|input2|mux|y~0_combout $end
$var wire 1 O myDiv|ORout[1]~1_combout $end
$var wire 1 P myDiv|FS7|Bout~5_combout $end
$var wire 1 Q myDiv|FS7|Bout~7_combout $end
$var wire 1 R myDiv|FS8|Bout~0_combout $end
$var wire 1 S myDiv|ANDout[5]~0_combout $end
$var wire 1 T myDiv|FS7|Bout~0_combout $end
$var wire 1 U myDiv|FS7|Bout~1_combout $end
$var wire 1 V myDiv|FS7|Bout~3_combout $end
$var wire 1 W myDiv|FS7|Bout~2_combout $end
$var wire 1 X myDiv|FS7|Bout~4_combout $end
$var wire 1 Y myDiv|ANDout[5]~1_combout $end
$var wire 1 Z outputMux|twoIN2|y[0]~0_combout $end
$var wire 1 [ globalRes~input_o $end
$var wire 1 \ Display|bit0|int_q~q $end
$var wire 1 ] outputMux|twoIN2|y[1]~23_combout $end
$var wire 1 ^ outputMux|twoIN2|y[1]~19_combout $end
$var wire 1 _ myDiv|ANDout[4]~2_combout $end
$var wire 1 ` myMulti|convertBack~combout $end
$var wire 1 a outputMux|twoIN2|y[1]~1_combout $end
$var wire 1 b Display|bit1|int_q~q $end
$var wire 1 c myMulti|eightAdder|bit1|int_CarryOut3~combout $end
$var wire 1 d outputMux|twoIN2|y[0]~3_combout $end
$var wire 1 e myMulti|HA3|sum~combout $end
$var wire 1 f outputMux|twoIN2|y[2]~4_combout $end
$var wire 1 g addSub|bit1|o_CarryOut~combout $end
$var wire 1 h outputMux|twoIN2|y[2]~15_combout $end
$var wire 1 i outputMux|twoIN2|y[1]~2_combout $end
$var wire 1 j outputMux|twoIN2|y[2]~5_combout $end
$var wire 1 k Display|bit2|int_q~q $end
$var wire 1 l myMulti|HA3|carryout~combout $end
$var wire 1 m myMulti|FA2|o_Sum~combout $end
$var wire 1 n myMulti|HA4|sum~combout $end
$var wire 1 o addSub|bit2|o_CarryOut~combout $end
$var wire 1 p outputMux|twoIN2|y[3]~6_combout $end
$var wire 1 q myMulti|eightAdder|bit2|int_CarryOut3~combout $end
$var wire 1 r outputMux|twoIN2|y[3]~7_combout $end
$var wire 1 s outputMux|twoIN2|y[3]~8_combout $end
$var wire 1 t Display|bit3|int_q~q $end
$var wire 1 u myMulti|eightAdder|bit3|int_CarryOut3~combout $end
$var wire 1 v myMulti|HA2|sum~0_combout $end
$var wire 1 w myMulti|FA6|int_CarryOut1~combout $end
$var wire 1 x outputMux|twoIN2|y[4]~9_combout $end
$var wire 1 y outputMux|twoIN2|y[4]~10_combout $end
$var wire 1 z Display|bit4|int_q~q $end
$var wire 1 { myMulti|eightAdder|bit4|int_CarryOut3~combout $end
$var wire 1 | myMulti|FA4|o_Sum~combout $end
$var wire 1 } myMulti|FA5|o_Sum~combout $end
$var wire 1 ~ myMulti|HA4|carryout~combout $end
$var wire 1 !! myMulti|FA7|o_Sum~combout $end
$var wire 1 "! outputMux|twoIN2|y[5]~11_combout $end
$var wire 1 #! Display|bit5|int_q~q $end
$var wire 1 $! myMulti|eightAdder|bit5|int_CarryOut3~combout $end
$var wire 1 %! myMulti|FA8|int_CarryOut1~combout $end
$var wire 1 &! outputMux|twoIN2|y[6]~12_combout $end
$var wire 1 '! Display|bit6|int_q~q $end
$var wire 1 (! outputMux|twoIN2|y[7]~13_combout $end
$var wire 1 )! outputMux|twoIN2|y[7]~14_combout $end
$var wire 1 *! Display|bit7|int_q~q $end
$var wire 1 +! myMulti|AB3 [3] $end
$var wire 1 ,! myMulti|AB3 [2] $end
$var wire 1 -! myMulti|AB3 [1] $end
$var wire 1 .! myMulti|AB3 [0] $end
$var wire 1 /! myDiv|ANDout [5] $end
$var wire 1 0! myDiv|ANDout [4] $end
$var wire 1 1! myDiv|ANDout [3] $end
$var wire 1 2! myDiv|ANDout [2] $end
$var wire 1 3! myDiv|ANDout [1] $end
$var wire 1 4! myDiv|ANDout [0] $end
$var wire 1 5! myMulti|AB2 [3] $end
$var wire 1 6! myMulti|AB2 [2] $end
$var wire 1 7! myMulti|AB2 [1] $end
$var wire 1 8! myMulti|AB2 [0] $end
$upscope $end
$upscope $end
$enddefinitions $end
#0
$dumpvars
0!
0"
b11 #
b10 $
1%
1&
0.
0-
0,
0+
0*
0)
0(
0'
x/
00
11
x2
13
14
15
06
07
08
19
1:
0;
1<
1=
0>
0?
0@
0A
0B
0C
1D
1E
1F
0G
0H
1I
0J
0K
1L
0M
0N
0O
0P
0Q
0R
0S
0T
0U
0V
1W
0X
1Y
1Z
0[
0\
1]
0^
0_
0`
0a
0b
1c
0d
1e
0f
1g
0h
0i
0j
0k
0l
0m
0n
1o
0p
0q
1r
0s
0t
0u
0v
0w
0x
0y
0z
0{
0|
0}
0~
0!!
0"!
0#!
0$!
0%!
0&!
0'!
0(!
0)!
0*!
0.!
0-!
0,!
0+!
z4!
z3!
z2!
01!
z0!
z/!
z8!
07!
06!
05!
$end
#5000
1!
17
18
0/
1\
1.
#10000
0!
07
08
1/
#15000
1!
17
18
0/
#20000
0!
07
08
1/
#25000
1!
17
18
0/
#30000
0!
07
08
1/
#35000
1!
17
18
0/
#40000
0!
07
08
1/
#45000
1!
17
18
0/
#50000
0!
07
08
1/
#55000
1!
17
18
0/
#60000
0!
07
08
1/
#65000
1!
17
18
0/
#70000
0!
07
08
1/
#75000
1!
17
18
0/
#80000
0!
07
08
1/
#85000
1!
17
18
0/
#90000
0!
07
08
1/
#95000
1!
17
18
0/
#100000
0!
07
08
1/
#105000
1!
17
18
0/
#110000
b10 #
b11 $
0!
1B
0=
07
08
1/
1T
1V
1^
0g
1X
1a
1h
0o
0Y
1j
1p
1x
0r
1y
1"!
1&!
1)!
1s
#115000
1!
17
18
0/
1*!
1'!
1#!
1z
1t
1k
1b
1'
1(
1)
1*
1+
1,
1-
#120000
0!
07
08
1/
#125000
1!
17
18
0/
#130000
0!
07
08
1/
#135000
1!
17
18
0/
#140000
0!
07
08
1/
#145000
1!
17
18
0/
#150000
0!
07
08
1/
#155000
1!
17
18
0/
#160000
0!
07
08
1/
#165000
1!
17
18
0/
#170000
0!
07
08
1/
#175000
1!
17
18
0/
#180000
0!
07
08
1/
#185000
1!
17
18
0/
#190000
b110 #
b111 #
0!
1=
1>
07
08
1/
1?
0T
0V
0Z
0]
0^
0e
1g
1v
0h
1o
1G
0L
1e
0X
0a
1h
1w
1|
0j
0p
0x
0W
1O
1_
1Y
1j
0y
1r
0"!
0&!
0)!
1X
0s
0Y
#195000
1!
17
18
0/
0*!
0'!
0#!
0z
0t
0b
0\
0'
0(
0)
0*
0+
0-
0.
#200000
0!
07
08
1/
#205000
1!
17
18
0/
#210000
0!
07
08
1/
#215000
1!
17
18
0/
#220000
0!
07
08
1/
#225000
1!
17
18
0/
#230000
0!
07
08
1/
#235000
1!
17
18
0/
#240000
0!
07
08
1/
#245000
1!
17
18
0/
#250000
b111 $
0!
1A
07
08
1/
0E
1H
0_
0h
0O
1P
0e
1l
17!
16!
0j
0X
1}
1Y
1!!
#255000
1!
17
18
0/
0k
0,
#260000
0!
07
08
1/
#265000
1!
17
18
0/
#270000
0!
07
08
1/
#275000
1!
17
18
0/
#280000
b1111 #
b1111 $
0!
1C
1;
07
08
1/
1E
0F
0H
1_
11!
0?
0I
1K
0v
0G
1L
0P
1W
0l
1O
07!
06!
01!
0w
0|
0O
0_
0}
0!!
#285000
1!
17
18
0/
#290000
0!
07
08
1/
#295000
1!
17
18
0/
#300000
0!
07
08
1/
#305000
1!
17
18
0/
#310000
0!
07
08
1/
#315000
1!
17
18
0/
#320000
0!
07
08
1/
#325000
1!
17
18
0/
#330000
0!
07
08
1/
#335000
1!
17
18
0/
#340000
0!
07
08
1/
#345000
1!
17
18
0/
#350000
0%
0&
b1101 #
b1101 $
b1100 $
b1001 #
b1000 #
b1000 $
b0 #
b0 $
0!
0:
09
0B
0D
0A
0C
0=
0<
0>
0;
07
08
1/
1d
0g
0o
0K
0L
1S
1T
0c
1q
0W
1O
0Y
1u
1{
1$!
#355000
1!
17
18
0/
#360000
0!
07
08
1/
#365000
1!
17
18
0/
#370000
0!
07
08
1/
#375000
1!
17
18
0/
#380000
0!
07
08
1/
#385000
1!
17
18
0/
#390000
0!
07
08
1/
#395000
1!
17
18
0/
#400000
0!
07
08
1/
#405000
1!
17
18
0/
#410000
0!
07
08
1/
#415000
1!
17
18
0/
#420000
0!
07
08
1/
#425000
1!
17
18
0/
#430000
0!
07
08
1/
#435000
1!
17
18
0/
#440000
0!
07
08
1/
#445000
1!
17
18
0/
#450000
0!
07
08
1/
#455000
1!
17
18
0/
#460000
0!
07
08
1/
#465000
1!
17
18
0/
#470000
0!
07
08
1/
#475000
1!
17
18
0/
#480000
0!
07
08
1/
#485000
1!
17
18
0/
#490000
0!
07
08
1/
#495000
1!
17
18
0/
#500000
0!
07
08
1/
#505000
1!
17
18
0/
#510000
0!
07
08
1/
#515000
1!
17
18
0/
#520000
0!
07
08
1/
#525000
1!
17
18
0/
#530000
0!
07
08
1/
#535000
1!
17
18
0/
#540000
0!
07
08
1/
#545000
1!
17
18
0/
#550000
0!
07
08
1/
#555000
1!
17
18
0/
#560000
0!
07
08
1/
#565000
1!
17
18
0/
#570000
0!
07
08
1/
#575000
1!
17
18
0/
#580000
0!
07
08
1/
#585000
1!
17
18
0/
#590000
0!
07
08
1/
#595000
1!
17
18
0/
#600000
0!
07
08
1/
#605000
1!
17
18
0/
#610000
0!
07
08
1/
#615000
1!
17
18
0/
#620000
0!
07
08
1/
#625000
1!
17
18
0/
#630000
0!
07
08
1/
#635000
1!
17
18
0/
#640000
0!
07
08
1/
#645000
1!
17
18
0/
#650000
0!
07
08
1/
#655000
1!
17
18
0/
#660000
0!
07
08
1/
#665000
1!
17
18
0/
#670000
0!
07
08
1/
#675000
1!
17
18
0/
#680000
0!
07
08
1/
#685000
1!
17
18
0/
#690000
0!
07
08
1/
#695000
1!
17
18
0/
#700000
0!
07
08
1/
#705000
1!
17
18
0/
#710000
0!
07
08
1/
#715000
1!
17
18
0/
#720000
0!
07
08
1/
#725000
1!
17
18
0/
#730000
0!
07
08
1/
#735000
1!
17
18
0/
#740000
0!
07
08
1/
#745000
1!
17
18
0/
#750000
0!
07
08
1/
#755000
1!
17
18
0/
#760000
0!
07
08
1/
#765000
1!
17
18
0/
#770000
0!
07
08
1/
#775000
1!
17
18
0/
#780000
0!
07
08
1/
#785000
1!
17
18
0/
#790000
0!
07
08
1/
#795000
1!
17
18
0/
#800000
0!
07
08
1/
#805000
1!
17
18
0/
#810000
0!
07
08
1/
#815000
1!
17
18
0/
#820000
0!
07
08
1/
#825000
1!
17
18
0/
#830000
0!
07
08
1/
#835000
1!
17
18
0/
#840000
0!
07
08
1/
#845000
1!
17
18
0/
#850000
0!
07
08
1/
#855000
1!
17
18
0/
#860000
0!
07
08
1/
#865000
1!
17
18
0/
#870000
0!
07
08
1/
#875000
1!
17
18
0/
#880000
0!
07
08
1/
#885000
1!
17
18
0/
#890000
0!
07
08
1/
#895000
1!
17
18
0/
#900000
0!
07
08
1/
#905000
1!
17
18
0/
#910000
0!
07
08
1/
#915000
1!
17
18
0/
#920000
0!
07
08
1/
#925000
1!
17
18
0/
#930000
0!
07
08
1/
#935000
1!
17
18
0/
#940000
0!
07
08
1/
#945000
1!
17
18
0/
#950000
0!
07
08
1/
#955000
1!
17
18
0/
#960000
0!
07
08
1/
#965000
1!
17
18
0/
#970000
0!
07
08
1/
#975000
1!
17
18
0/
#980000
0!
07
08
1/
#985000
1!
17
18
0/
#990000
0!
07
08
1/
#995000
1!
17
18
0/
